{
  "模拟器": "",
  "mulator": {
    "木木模拟器": "",
    "mumu": {
       "platformName": "Android",
            "platformVersion": "6.0",
            "deviceName": "127.0.0.1:7555",
            "appPackage": "com.yzn.doctor_hepler",
            "appActivity": ".DSplashActivity",
            "noReset": true,
            "dontStopAppOnReset": null
    },
    "Iphone模拟器": "",
    "ios": {
            "platformName": "ios",
            "platformVerison": "15.1",
            "deviceName": "iPhone 13 Pro Max",
            "app": "/Users/edy/Library/Developer/Xcode/DerivedData/spr_ly-fcututolzceubjgouwjvpbneymjy/Build/Products/Debug-iphonesimulator/spr_ly.app",
            "noReset": true,
            "automationName": "XCUITest"
    }
  }
}

